PGLS locomtor performance
…
## $phy 
## 
## Phylogenetic tree with 38 tips and 37 internal nodes.
## 
## Tip labels:
##  Zalophus_californianus, Inia_geoffrensis, Delphinapterus_leucas, Lagenorhynchus_obliquidens, Cephalorhynchus_commersonii, Pseudorca_crassidens, ...
## Node labels:
##  , , , , , , ...
## 
## Rooted; includes branch lengths.
## 
## $dat 
## # A tibble: 38 x 10
##      SI_Mass    LnMass Locomotor.Trait TraitValue TempTraitValue
##  *     <dbl>     <dbl>          <fctr>      <dbl>          <dbl>
##  1  113000.0 11.610051   Angular Speed    675.000     105.412367
##  2  160000.0 11.982929   Angular Speed    104.625      16.338917
##  3 1381640.0 14.138782   Angular Speed    139.620      21.803962
##  4  155000.0 11.951180   Angular Speed    225.000      35.137456
##  5   55500.0 10.924138   Angular Speed    337.500      52.706183
##  6  700000.0 13.458836   Angular Speed    138.000      21.550973
##  7 8750000.0 15.984564   Angular Speed    148.130      23.132939
##  8      18.5  2.917771   Angular Speed   1272.000     198.643749
##  9 2780000.0 14.837961   Angular Speed     43.200       6.746391
## 10       NaN       NaN   Angular Speed    230.770      95.912526
## # ... with 28 more rows, and 5 more variables: Temperature <dbl>,
## #   TempType <fctr>, Environment <fctr>, Thermy <fctr>,
## #   TrophicGroup <fctr>
…
